<?xml version="1.0" encoding="UTF-8" standalone="no"?>
<!-- Created with Inkscape (http://www.inkscape.org/) -->

<svg
   xmlns:dc="http://purl.org/dc/elements/1.1/"
   xmlns:cc="http://creativecommons.org/ns#"
   xmlns:rdf="http://www.w3.org/1999/02/22-rdf-syntax-ns#"
   xmlns:svg="http://www.w3.org/2000/svg"
   xmlns="http://www.w3.org/2000/svg"
   xmlns:sodipodi="http://sodipodi.sourceforge.net/DTD/sodipodi-0.dtd"
   xmlns:inkscape="http://www.inkscape.org/namespaces/inkscape"
   width="137.69844mm"
   height="148.72874mm"
   viewBox="0 0 137.69844 148.72874"
   version="1.1"
   id="svg8"
   inkscape:version="0.92.3 (2405546, 2018-03-11)"
   sodipodi:docname="geo-cylinder-simple.svg">
  <defs
     id="defs2" />
  <sodipodi:namedview
     id="base"
     pagecolor="#ffffff"
     bordercolor="#666666"
     borderopacity="1.0"
     inkscape:pageopacity="0.0"
     inkscape:pageshadow="2"
     inkscape:zoom="0.70710678"
     inkscape:cx="386.43695"
     inkscape:cy="241.85151"
     inkscape:document-units="mm"
     inkscape:current-layer="g5219"
     showgrid="false"
     inkscape:window-width="1600"
     inkscape:window-height="833"
     inkscape:window-x="0"
     inkscape:window-y="0"
     inkscape:window-maximized="1"
     inkscape:snap-global="true"
     fit-margin-top="10"
     fit-margin-left="10"
     fit-margin-right="10"
     fit-margin-bottom="10" />
  <metadata
     id="metadata5">
    <rdf:RDF>
      <cc:Work
         rdf:about="">
        <dc:format>image/svg+xml</dc:format>
        <dc:type
           rdf:resource="http://purl.org/dc/dcmitype/StillImage" />
        <dc:title></dc:title>
      </cc:Work>
    </rdf:RDF>
  </metadata>
  <g
     inkscape:label="Ebene 1"
     inkscape:groupmode="layer"
     id="layer1"
     transform="translate(-22.458706,-125.94285)">
    <text
       xml:space="preserve"
       style="font-style:normal;font-weight:normal;font-size:10.58333302px;line-height:1000;font-family:sans-serif;letter-spacing:0px;word-spacing:0px;fill:#000000;fill-opacity:1;stroke:none;stroke-width:0.26458332"
       x="60.803814"
       y="121.51083"
       id="text4838"><tspan
         sodipodi:role="line"
         id="tspan4836"
         x="60.803814"
         y="5415.9268"
         style="stroke-width:0.26458332"></tspan></text>
    <g
       id="g5219"
       transform="rotate(-90,91.078855,240.49325)">
      <path
         inkscape:connector-curvature="0"
         id="path3713"
         d="M 84.954851,253.22097 H 177.39102"
         style="fill:none;stroke:#000000;stroke-width:0.69999999;stroke-linecap:round;stroke-linejoin:round;stroke-miterlimit:4;stroke-dasharray:none;stroke-opacity:1" />
      <path
         inkscape:connector-curvature="0"
         id="path3713-4"
         d="M 84.965927,213.92097 H 177.39102"
         style="fill:none;stroke:#000000;stroke-width:0.69999999;stroke-linecap:round;stroke-linejoin:round;stroke-miterlimit:4;stroke-dasharray:none;stroke-opacity:1" />
      <path
         d="m 84.954849,213.929 a 9.6459856,19.645987 0 0 1 9.645986,19.64598 9.6459856,19.645987 0 0 1 -9.645985,19.64599"
         sodipodi:open="true"
         sodipodi:end="1.5707963"
         sodipodi:start="4.712389"
         sodipodi:ry="19.645987"
         sodipodi:rx="9.6459856"
         sodipodi:cy="233.57498"
         sodipodi:cx="84.954849"
         sodipodi:type="arc"
         id="path4987"
         style="fill:none;fill-opacity:1;stroke:#000000;stroke-width:0.70802867;stroke-linecap:round;stroke-linejoin:round;stroke-miterlimit:4;stroke-dasharray:2.83211486, 2.83211486;stroke-dashoffset:0;stroke-opacity:1" />
      <path
         d="m 177.74619,213.92526 a 9.6459856,19.645987 0 0 1 9.64598,19.64598 9.6459856,19.645987 0 0 1 -9.64598,19.64599"
         sodipodi:open="true"
         sodipodi:end="1.5707963"
         sodipodi:start="4.712389"
         sodipodi:ry="19.645987"
         sodipodi:rx="9.6459856"
         sodipodi:cy="233.57124"
         sodipodi:cx="177.74619"
         sodipodi:type="arc"
         id="path4987-2"
         style="fill:none;fill-opacity:1;stroke:#000000;stroke-width:0.70802867;stroke-linecap:round;stroke-linejoin:round;stroke-miterlimit:4;stroke-dasharray:2.83211489, 2.83211489;stroke-dashoffset:0;stroke-opacity:1" />
      <path
         sodipodi:open="true"
         d="m 177.74619,253.21723 a 9.6459856,19.645987 0 0 1 -8.35367,-9.82299 9.6459856,19.645987 0 0 1 0,-19.64599 9.6459856,19.645987 0 0 1 8.35367,-9.82299"
         sodipodi:end="4.712389"
         sodipodi:start="1.5707963"
         sodipodi:ry="19.645987"
         sodipodi:rx="9.6459856"
         sodipodi:cy="233.57124"
         sodipodi:cx="177.74619"
         sodipodi:type="arc"
         id="path4987-7-7"
         style="fill:none;fill-opacity:1;stroke:#000000;stroke-width:0.70802867;stroke-linecap:round;stroke-linejoin:round;stroke-miterlimit:4;stroke-dasharray:none;stroke-dashoffset:0;stroke-opacity:1" />
      <g
         id="g5249"
         transform="translate(3.9997528,0.08944804)">
        <g
           transform="rotate(-90,114.19354,233.83272)"
           id="g5348-6-4"
           style="stroke:#808080;stroke-opacity:1">
          <path
             style="fill:none;stroke:#808080;stroke-width:0.69999999;stroke-linecap:round;stroke-linejoin:round;stroke-miterlimit:4;stroke-dasharray:2.79999993, 2.79999993;stroke-dashoffset:0;stroke-opacity:1"
             d="M 114.19354,182.89492 V 310.9137"
             id="path3713-0-5-8"
             inkscape:connector-curvature="0"
             sodipodi:nodetypes="cc" />
          <path
             style="fill:none;stroke:#808080;stroke-width:0.69999999;stroke-linecap:round;stroke-linejoin:round;stroke-miterlimit:4;stroke-dasharray:none;stroke-opacity:1"
             d="m 120.07347,292.17811 -5.87993,6.949"
             id="path3715-63-1"
             inkscape:connector-curvature="0" />
          <path
             style="fill:none;stroke:#808080;stroke-width:0.69999999;stroke-linecap:round;stroke-linejoin:round;stroke-miterlimit:4;stroke-dasharray:none;stroke-opacity:1"
             d="m 108.31361,292.17811 5.87993,6.949"
             id="path3715-3-9-2"
             inkscape:connector-curvature="0" />
        </g>
        <g
           id="g5348">
          <path
             style="fill:none;stroke:#000000;stroke-width:0.69999999;stroke-linecap:round;stroke-linejoin:round;stroke-miterlimit:4;stroke-dasharray:none;stroke-opacity:1"
             d="m 114.19354,233.83272 v 65.29439"
             id="path3713-0"
             inkscape:connector-curvature="0" />
          <path
             style="fill:none;stroke:#000000;stroke-width:0.69999999;stroke-linecap:round;stroke-linejoin:round;stroke-miterlimit:4;stroke-dasharray:none;stroke-opacity:1"
             d="m 120.07347,292.17811 -5.87993,6.949"
             id="path3715"
             inkscape:connector-curvature="0" />
          <path
             style="fill:none;stroke:#000000;stroke-width:0.69999999;stroke-linecap:round;stroke-linejoin:round;stroke-miterlimit:4;stroke-dasharray:none;stroke-opacity:1"
             d="m 108.31361,292.17811 5.87993,6.949"
             id="path3715-3"
             inkscape:connector-curvature="0" />
        </g>
        <g
           transform="rotate(-90,114.19354,233.83272)"
           id="g5348-6">
          <path
             style="fill:none;stroke:#000000;stroke-width:0.69999999;stroke-linecap:round;stroke-linejoin:round;stroke-miterlimit:4;stroke-dasharray:none;stroke-opacity:1"
             d="m 114.19354,233.83272 v 65.29439"
             id="path3713-0-5"
             inkscape:connector-curvature="0" />
          <path
             style="fill:none;stroke:#000000;stroke-width:0.69999999;stroke-linecap:round;stroke-linejoin:round;stroke-miterlimit:4;stroke-dasharray:none;stroke-opacity:1"
             d="m 120.07347,292.17811 -5.87993,6.949"
             id="path3715-63"
             inkscape:connector-curvature="0" />
          <path
             style="fill:none;stroke:#000000;stroke-width:0.69999999;stroke-linecap:round;stroke-linejoin:round;stroke-miterlimit:4;stroke-dasharray:none;stroke-opacity:1"
             d="m 108.31361,292.17811 5.87993,6.949"
             id="path3715-3-9"
             inkscape:connector-curvature="0" />
        </g>
      </g>
      <path
         sodipodi:open="true"
         d="m 84.95485,253.22097 a 9.6459856,19.645987 0 0 1 -8.353669,-9.82299 9.6459856,19.645987 0 0 1 0,-19.64599 9.6459856,19.645987 0 0 1 8.353668,-9.82299"
         sodipodi:end="4.712389"
         sodipodi:start="1.5707963"
         sodipodi:ry="19.645987"
         sodipodi:rx="9.6459856"
         sodipodi:cy="233.57498"
         sodipodi:cx="84.954849"
         sodipodi:type="arc"
         id="path4987-7"
         style="fill:none;fill-opacity:1;stroke:#000000;stroke-width:0.70802867;stroke-linecap:round;stroke-linejoin:round;stroke-miterlimit:4;stroke-dasharray:none;stroke-dashoffset:0;stroke-opacity:1" />
      <g
         id="g5249-9"
         transform="translate(5.6540761,-149.55527)"
         style="stroke-width:0.69999999;stroke-miterlimit:4;stroke-dasharray:none">
        <g
           id="g5278"
           transform="rotate(145.90751,95.044379,357.63038)"
           style="stroke-width:0.69999999;stroke-miterlimit:4;stroke-dasharray:none">
          <path
             style="fill:none;stroke:#000000;stroke-width:0.69999999;stroke-linecap:round;stroke-linejoin:round;stroke-miterlimit:4;stroke-dasharray:none;stroke-opacity:1"
             d="m 95.044375,326.41917 v 62.42241"
             id="path3713-0-1"
             inkscape:connector-curvature="0" />
          <path
             style="fill:none;stroke:#000000;stroke-width:0.69999999;stroke-linecap:round;stroke-linejoin:round;stroke-miterlimit:4;stroke-dasharray:none;stroke-opacity:1"
             d="m 100.92431,381.89258 -5.879935,6.949"
             id="path3715-7"
             inkscape:connector-curvature="0" />
          <path
             style="fill:none;stroke:#000000;stroke-width:0.69999999;stroke-linecap:round;stroke-linejoin:round;stroke-miterlimit:4;stroke-dasharray:none;stroke-opacity:1"
             d="m 89.164445,381.89258 5.87993,6.949"
             id="path3715-3-7"
             inkscape:connector-curvature="0" />
          <text
             xml:space="preserve"
             style="font-style:normal;font-weight:normal;font-size:5.64444447px;line-height:1000;font-family:sans-serif;letter-spacing:0px;word-spacing:0px;fill:#000000;fill-opacity:1;stroke:none;stroke-width:0.18520834"
             x="-208.95607"
             y="277.62335"
             id="text5398"
             transform="rotate(-55.907509)"><tspan
               sodipodi:role="line"
               id="tspan5396"
               x="-208.95607"
               y="277.62335"
               style="font-size:5.64444447px;stroke-width:0.18520834">r</tspan></text>
        </g>
      </g>
      <text
         xml:space="preserve"
         style="font-style:normal;font-weight:normal;font-size:10.58333302px;line-height:1000;font-family:sans-serif;letter-spacing:0px;word-spacing:0px;fill:#000000;fill-opacity:1;stroke:none;stroke-width:0.26458332"
         x="283.81131"
         y="-121.50082"
         id="text5376"
         transform="rotate(90)"><tspan
           sodipodi:role="line"
           id="tspan5374"
           x="283.81131"
           y="-121.50082"
           style="stroke-width:0.26458332">x</tspan></text>
      <text
         xml:space="preserve"
         style="font-style:normal;font-weight:normal;font-size:10.58333302px;line-height:1000;font-family:sans-serif;letter-spacing:0px;word-spacing:0px;fill:#000000;fill-opacity:1;stroke:none;stroke-width:0.26458332"
         x="186.44464"
         y="-92.925819"
         id="text5380"
         transform="rotate(90)"><tspan
           sodipodi:role="line"
           id="tspan5378"
           x="186.44464"
           y="-92.925819"
           style="stroke-width:0.26458332">y</tspan></text>
      <text
         xml:space="preserve"
         style="font-style:normal;font-weight:normal;font-size:10.58333302px;line-height:1000;font-family:sans-serif;letter-spacing:0px;word-spacing:0px;fill:#000000;fill-opacity:1;stroke:none;stroke-width:0.26458332"
         x="221.89879"
         y="-176.53413"
         id="text5384"
         transform="rotate(90)"><tspan
           sodipodi:role="line"
           id="tspan5382"
           x="221.89879"
           y="-176.53413"
           style="stroke-width:0.26458332">z</tspan></text>
      <g
         id="g4589"
         transform="matrix(0,0.65496027,-1,0,284.29838,202.79109)">
        <path
           inkscape:connector-curvature="0"
           id="path4570"
           d="m 47.531242,172.71967 c 0,0 -0.378712,2.4775 4.157001,2.57199 4.535715,0.0945 10.394346,-0.94494 10.394346,2.17337"
           style="fill:none;stroke:#000000;stroke-width:0.26458332px;stroke-linecap:butt;stroke-linejoin:miter;stroke-opacity:1" />
        <path
           inkscape:connector-curvature="0"
           id="path4570-3"
           d="m 76.633937,172.71967 c 0,0 0.378712,2.4775 -4.157001,2.57199 -4.535715,0.0945 -10.394347,-0.94494 -10.394347,2.17337"
           style="fill:none;stroke:#000000;stroke-width:0.26458332px;stroke-linecap:butt;stroke-linejoin:miter;stroke-opacity:1" />
      </g>
    </g>
  </g>
</svg>
