{
    "model_id": 990233135,
    "model_name": "Mathe-Maister",
    "deck_id": 695065914,
    "deck_description": "Mathe Basics, für Tricks und Grundwissen, das man oft braucht aber oft vergisst.\n\nalex.m.s@gmx.de für Fragen und Änderungsvorschläge.\noder gitlab.com/CptMaister",
    "deck_name": " Mathe-Maister::Mathe Basics",
    "start_note_id": 676606206,
    "start_card_id": 542498464,
    "guid_random_string": "81ghi",
    "image_dir": "Mathe-Basics"
}
